######################################################################
## PARAM_CARD AUTOMATICALY GENERATED BY MG5 FOLLOWING UFO MODEL   ####
######################################################################
##                                                                  ##
##  Width set on Auto will be computed following the information    ##
##        present in the decay.py files of the model.               ##
##        See  arXiv:1402.1178 for more details.                    ##
##                                                                  ##
######################################################################

###################################
## INFORMATION FOR DSQMIX
###################################
Block dsqmix
    1   1 1.000000e+00 # RRd1x1
    2   2 1.000000e+00 # RRd2x2
    3   3 9.387379e-01 # RRd3x3
    3   6 3.446319e-01 # RRd3x6
    4   4 1.000000e+00 # RRd4x4
    5   5 1.000000e+00 # RRd5x5
    6   3 -3.446319e-01 # RRd6x3
    6   6 9.387379e-01 # RRd6x6

###################################
## INFORMATION FOR FRALPHA
###################################
Block fralpha
    1 -1.138252e-01 # alp

###################################
## INFORMATION FOR HMIX
###################################
Block hmix
    1 3.576810e+02 # RMUH
    2 9.748624e+00 # tb
    4 1.664391e+05 # MA2

###################################
## INFORMATION FOR MASS
###################################
Block mass
    5 4.889917e+00 # MB
    6 1.750000e+02 # MT
   15 1.777000e+00 # Mta
   23 9.118760e+01 # MZ
   24 7.982901e+01 # MW
   25 1.108991e+02 # MH01
   35    4.5E9  # MH02
   36    4.5E9  # MA0
   37    4.5E9  # MH
   1000001    4.5E9  # set of param :1*Msd1, 1*Msd2
   1000002    4.5E9  # set of param :1*Msu1, 1*Msu2
   1000005    4.5E9  # Msd3
   1000006    4.5E9  # Msu3
   1000011    ${MSLEP}  # Msl1
   1000012    ${MSNU}   # Msn1
   1000013    ${MSLEP}  # Msl2
   1000014    ${MSNU}   # Msn2
   1000015    ${MSLEP}  # Msl3
   1000016    ${MSNU}   # Msn3
   1000021    4.5E9  # Mgo
   1000022    ${MN1} # Mneu1
   1000023    ${MN2} # Mneu2
   1000024    ${MC1} # Mch1
   1000025    4.5E9  # Mneu3
   1000035    4.5E9  # Mneu4
   1000037    4.5E9  # Mch2
   2000001    4.5E9  # set of param :1*Msd4, 1*Msd5
   2000002    4.5E9  # set of param :1*Msu4, 1*Msu5
   2000005    4.5E9  # Msd6
   2000006    4.5E9  # Msu6
   2000011    ${MSLEP}  # set of param :1*Msl4, 1*Msl5
   2000013    ${MSLEP}  # set of param :1*Msl4, 1*Msl5
   2000015    ${MSLEP}  # Msl6
## Dependent parameters, given by model restrictions.
## Those values should be edited following the
## analytical expression. MG5 ignores those values
## but they are important for interfacing the output of MG5
## to external program such as Pythia.
  1 0.000000e+00 # d : 0.0
  2 0.000000e+00 # u : 0.0
  3 0.000000e+00 # s : 0.0
  4 0.000000e+00 # c : 0.0
  11 0.000000e+00 # e- : 0.0
  12 0.000000e+00 # ve : 0.0
  13 0.000000e+00 # mu- : 0.0
  14 0.000000e+00 # vm : 0.0
  16 0.000000e+00 # vt : 0.0
  21 0.000000e+00 # g : 0.0
  22 0.000000e+00 # a : 0.0
   1000004    4.5E9  # cl : Msu1
   2000004    4.5E9  # cr : Msu4
   1000003    4.5E9  # sl : Msd1
   2000003    4.5E9  # sr : Msd4

###################################
## INFORMATION FOR MSD2
###################################
Block msd2
    1   1 2.736847e+05 # set of param :1*RmD21x1, 1*RmD22x2
    2   2 2.736847e+05 # MG5 will not use this value use instead 1*mdl_RmD21x1
    3   3 2.702620e+05 # RmD23x3

###################################
## INFORMATION FOR MSE2
###################################
Block mse2
    1   1 1.863063e+04 # set of param :1*RmE21x1, 1*RmE22x2
    2   2 1.863063e+04 # MG5 will not use this value use instead 1*mdl_RmE21x1
    3   3 1.796764e+04 # RmE23x3

###################################
## INFORMATION FOR MSL2
###################################
Block msl2
    1   1 3.815567e+04 # set of param :1*RmL21x1, 1*RmL22x2
    2   2 3.815567e+04 # MG5 will not use this value use instead 1*mdl_RmL21x1
    3   3 3.782868e+04 # RmL23x3

###################################
## INFORMATION FOR MSOFT
###################################
Block msoft
    1 1.013965e+02 # RMx1
    2 1.915042e+02 # RMx2
    3 5.882630e+02 # RMx3
   21 3.233749e+04 # mHd2
   22 -1.288001e+05 # mHu2

###################################
## INFORMATION FOR MSQ2
###################################
Block msq2
    1   1 2.998367e+05 # set of param :1*RmQ21x1, 1*RmQ22x2
    2   2 2.998367e+05 # MG5 will not use this value use instead 1*mdl_RmQ21x1
    3   3 2.487654e+05 # RmQ23x3

###################################
## INFORMATION FOR MSU2
###################################
Block msu2
    1   1 2.803821e+05 # set of param :1*RmU21x1, 1*RmU22x2
    2   2 2.803821e+05 # MG5 will not use this value use instead 1*mdl_RmU21x1
    3   3 1.791371e+05 # RmU23x3

###################################
## INFORMATION FOR NMIX
###################################
Block nmix
   1  1     1.00E+00  # RNN1x1
   1  2     0.00E+00  # RNN1x2
   1  3     0.00E+00  # RNN1x3
   1  4     0.00E+00  # RNN1x4
   2  1     0.00E+00  # RNN2x1
   2  2     1.00E+00  # RNN2x2
   2  3     0.00E+00  # RNN2x3
   2  4     0.00E+00  # RNN2x4
   3  1     0.00E+00  # RNN3x1
   3  2     0.00E+00  # RNN3x2
   3  3     1.00E+00  # RNN3x3
   3  4     0.00E+00  # RNN3x4
   4  1     0.00E+00  # RNN4x1
   4  2     0.00E+00  # RNN4x2
   4  3     0.00E+00  # RNN4x3
   4  4     1.00E+00  # RNN4x4

###################################
## INFORMATION FOR SELMIX
###################################
Block selmix
    1   1 1.000000e+00 # RRl1x1
    2   2 1.000000e+00 # RRl2x2
    3   3 2.824872e-01 # RRl3x3
    3   6 9.592711e-01 # RRl3x6
    4   4 1.000000e+00 # RRl4x4
    5   5 1.000000e+00 # RRl5x5
    6   3 9.592711e-01 # RRl6x3
    6   6 -2.824872e-01 # RRl6x6

###################################
## INFORMATION FOR SMINPUTS
###################################
Block sminputs
    1 1.279340e+02 # aEWM1
    3 1.180000e-01 # aS

###################################
## INFORMATION FOR SNUMIX
###################################
Block snumix
    1   1 1.000000e+00 # RRn1x1
    2   2 1.000000e+00 # RRn2x2
    3   3 1.000000e+00 # RRn3x3

###################################
## INFORMATION FOR TD
###################################
Block td
    3   3 -1.106937e+02 # Rtd3x3

###################################
## INFORMATION FOR TE
###################################
Block te
    3   3 -2.540197e+01 # Rte3x3

###################################
## INFORMATION FOR TU
###################################
Block tu
    3   3 -4.447525e+02 # Rtu3x3

###################################
## INFORMATION FOR UMIX
###################################
Block umix
   1  1     1.00E+00  # RUU1x1
   1  2     0.00E+00  # RUU1x2
   2  1     0.00E+00  # RUU2x1
   2  2     1.00E+00  # RUU2x2

###################################
## INFORMATION FOR UPMNS
###################################
Block upmns
    1   1 1.000000e+00 # RMNS1x1
    2   2 1.000000e+00 # RMNS2x2
    3   3 1.000000e+00 # RMNS3x3

###################################
## INFORMATION FOR USQMIX
###################################
Block usqmix
    1   1 1.000000e+00 # RRu1x1
    2   2 1.000000e+00 # RRu2x2
    3   3 5.536450e-01 # RRu3x3
    3   6 8.327528e-01 # RRu3x6
    4   4 1.000000e+00 # RRu4x4
    5   5 1.000000e+00 # RRu5x5
    6   3 8.327528e-01 # RRu6x3
    6   6 -5.536450e-01 # RRu6x6

###################################
## INFORMATION FOR VCKM
###################################
Block vckm
    1   1 1.000000e+00 # RCKM1x1
    2   2 1.000000e+00 # RCKM2x2
    3   3 1.000000e+00 # RCKM3x3

###################################
## INFORMATION FOR VMIX
###################################
Block vmix
   1  1     1.00E+00  # RVV1x1
   1  2     0.00E+00  # RVV1x2
   2  1     0.00E+00  # RVV2x1
   2  2     1.00E+00  # RVV2x2

###################################
## INFORMATION FOR YD
###################################
Block yd
    3   3 1.388402e-01 # Ryd3x3

###################################
## INFORMATION FOR YE
###################################
Block ye
    3   3 1.008908e-01 # Rye3x3

###################################
## INFORMATION FOR YU
###################################
Block yu
    3   3 8.928445e-01 # Ryu3x3

###################################
## INFORMATION FOR DECAY
###################################
DECAY   6 1.561950e+00 # WT
DECAY  23 2.411433e+00 # WZ
DECAY  24 2.002822e+00 # WW
DECAY  25 1.986108e-03 # WH01
DECAY  35 5.748014e-01 # WH02
DECAY  36 6.321785e-01 # WA0
DECAY  37 5.469628e-01 # WH
DECAY 1000001 5.312788e+00 # Wsd1
DECAY 1000002 5.477195e+00 # Wsu1
DECAY 1000003 5.312788e+00 # Wsd2
DECAY 1000004 5.477195e+00 # Wsu2
DECAY 1000005 3.736276e+00 # Wsd3
DECAY 1000006 2.021596e+00 # Wsu3
DECAY 1000011 2.136822e-01 # Wsl1
#          BR         NDA      ID1       ID2
     0.00000000E+00    2     1000022        11   # BR(~e_L -> ~chi_10 e-)
     0.00000000E+00    2     1000023        11   # BR(~e_L -> ~chi_20 e-)
     1.00000000E+00    2    -1000024        12   # BR(~e_L -> ~chi^-_1 nu_e)
#
DECAY 1000012 1.498816e-01 # Wsn1
#    BR                NDA      ID1      ID2
     2.50000000E-01    2     1000022        12   # BR(~nu_e -> chi^0_1 nu_e)
     2.50000000E-01    2     1000023        12   # BR(~nu_e -> chi^0_2 nu_e)
     5.00000000E-01    2     1000024        11   # BR(~nu_e -> chi^+_1 e^-)
#
DECAY 1000013 2.136822e-01 # Wsl2
#          BR         NDA      ID1       ID2
     0.00000000E+00    2     1000022        13   # BR(~mu_L -> ~chi_10 mu-)
     0.00000000E+00    2     1000023        13   # BR(~mu_L -> ~chi_20 mu-)
     1.00000000E+00    2     1000014        14   # BR(~mu_L -> ~chi^-_1 nu_mu)
#
DECAY 1000014 1.498816e-01 # Wsn2
#    BR                NDA      ID1      ID2
     2.50000000E-01    2     1000022        14   # BR(~nu_mu -> chi^0_1 nu_mu)
     2.50000000E-01    2     1000023        14   # BR(~nu_mu -> chi^0_2 nu_mu)
     5.00000000E-01    2     1000024        13   # BR(~nu_mu -> chi^+_1 mu^-)
#
DECAY 1000015 1.483273e-01 # Wsl3
#          BR         NDA      ID1       ID2
     0.00000000E+00    2     1000022        15   # BR(~tau_L -> ~chi_10 tau-)
     0.00000000E+00    2     1000023        15   # BR(~tau_L -> ~chi_20 tau-)
     1.00000000E+00    2     1000016        16   # BR(~tau_L -> ~chi^-_1 nu_tau)
#
DECAY 1000016 1.475190e-01 # Wsn3
#    BR                NDA      ID1      ID2
     2.50000000E-01    2     1000022        16   # BR(~nu_tau -> chi^0_1 nu_tau)
     2.50000000E-01    2     1000023        16   # BR(~nu_tau -> chi^0_2 nu_tau)
     5.00000000E-01    2     1000024        15   # BR(~nu_tau -> chi^+_1 tau^-)
#
DECAY 1000021 5.506754e+00 # Wgo
DECAY   1000023     9.37327589E-04   # neutralino2 decays
#    BR                NDA      ID1      ID2
     0.00000000E-01    2     1000022        22   # BR(chi^0_2 -> chi^0_1 photon)
#    BR                NDA      ID1      ID2       ID3
     1.00000000E-01    3     1000022        11       -11   # BR(chi^0_2 -> chi^0_1 e^- e^+)
     1.00000000E-01    3     1000022        13       -13   # BR(chi^0_2 -> chi^0_1 mu^- mu^+)
     1.00000000E-01    3     1000022        15       -15   # BR(chi^0_2 -> chi^0_1 tau^- tau^+)
     7.00000000E-01    3     1000022        12       -12   # BR(chi^0_2 -> chi^0_1 nu_e nu_bar_e)
DECAY   1000024     7.00367294E-03   # chargino1+ decays
#    BR                NDA      ID1      ID2       ID3
     0.33333333E+00    3     1000022        -1         2   # BR(chi^+_1 -> chi^0_1 d_bar u)
     0.33333333E+00    3     1000022        -3         4   # BR(chi^+_1 -> chi^0_1 s_bar c)
     0.11111111E+00    3     1000022       -11        12   # BR(chi^+_1 -> chi^0_1 e^+ nu_e)
     0.11111111E+00    3     1000022       -13        14   # BR(chi^+_1 -> chi^0_1 mu^+ nu_mu)
     0.11111111E+00    3     1000022       -15        16   # BR(chi^+_1 -> chi^0_1 tau^+ nu_tau)
DECAY 1000025 1.915985e+00 # Wneu3
DECAY 1000035 2.585851e+00 # Wneu4
DECAY 1000037 2.486895e+00 # Wch2
DECAY 2000001 2.858123e-01 # Wsd4
DECAY 2000002 1.152973e+00 # Wsu4
DECAY 2000003 2.858123e-01 # Wsd5
DECAY 2000004 1.152973e+00 # Wsu5
DECAY 2000005 8.015663e-01 # Wsd6
DECAY 2000006 7.373133e+00 # Wsu6
DECAY 2000011 2.161216e-01 # Wsl4
#          BR         NDA      ID1       ID2
     1.00000000E+00    2     1000022        11   # BR(~e_R -> ~chi_10 e-)
     0.00000000E+00    2     1000023        11   # BR(~e_R -> ~chi_20 e-)
     0.00000000E+00    2     1000025        11   # BR(~e_R -> ~chi_30 e-)
     0.00000000E+00    2     1000035        11   # BR(~e_R -> ~chi_40 e-)
     0.00000000E+00    2    -1000024        12   # BR(~e_R -> ~chi_1- nu_e)
     0.00000000E+00    2    -1000037        12   # BR(~e_R -> ~chi_2- nu_e)
#
DECAY 2000013 2.161216e-01 # Wsl5
#          BR         NDA      ID1       ID2
     1.00000000E+00    2     1000022        13   # BR(~mu_R -> ~chi_10 mu-)
     0.00000000E+00    2     1000023        13   # BR(~mu_R -> ~chi_20 mu-)
     0.00000000E+00    2     1000025        13   # BR(~mu_R -> ~chi_30 mu-)
     0.00000000E+00    2     1000035        13   # BR(~mu_R -> ~chi_40 mu-)
     0.00000000E+00    2    -1000024        14   # BR(~mu_R -> ~chi_1- nu_mu)
     0.00000000E+00    2    -1000037        14   # BR(~mu_R -> ~chi_2- nu_mu)
#
DECAY 2000015 2.699061e-01 # Wsl6
#          BR         NDA      ID1       ID2
     1.00000000E+00    2     1000022        15   # BR(~tau_2 -> ~chi_10  tau-)
     0.00000000E+00    2     1000023        15   # BR(~tau_2 -> ~chi_20  tau-)
     0.00000000E+00    2     1000025        15   # BR(~tau_2 -> ~chi_30  tau-)
     0.00000000E+00    2     1000035        15   # BR(~tau_2 -> ~chi_40  tau-)
     0.00000000E+00    2    -1000024        16   # BR(~tau_2 -> ~chi_1-  nu_tau)
     0.00000000E+00    2    -1000037        16   # BR(~tau_2 -> ~chi_2-  nu_tau)
     0.00000000E+00    2     1000016       -37   # BR(~tau_2 -> ~nu_tauL H-)
     0.00000000E+00    2     1000016       -24   # BR(~tau_2 -> ~nu_tauL W-)
     0.00000000E+00    2     1000015        25   # BR(~tau_2 -> ~tau_1 h)
     0.00000000E+00    2     1000015        35   # BR(~tau_2 -> ~tau_1 H)
     0.00000000E+00    2     1000015        36   # BR(~tau_2 -> ~tau_1 A)
     0.00000000E+00    2     1000015        23   # BR(~tau_2 -> ~tau_1 Z)
#
## Dependent parameters, given by model restrictions.
## Those values should be edited following the
## analytical expression. MG5 ignores those values
## but they are important for interfacing the output of MG5
## to external program such as Pythia.
DECAY  1 0.000000e+00 # d : 0.0
DECAY  2 0.000000e+00 # u : 0.0
DECAY  3 0.000000e+00 # s : 0.0
DECAY  4 0.000000e+00 # c : 0.0
DECAY  5 0.000000e+00 # b : 0.0
DECAY  11 0.000000e+00 # e- : 0.0
DECAY  12 0.000000e+00 # ve : 0.0
DECAY  13 0.000000e+00 # mu- : 0.0
DECAY  14 0.000000e+00 # vm : 0.0
DECAY  15 0.000000e+00 # ta- : 0.0
DECAY  16 0.000000e+00 # vt : 0.0
DECAY  21 0.000000e+00 # g : 0.0
DECAY  22 0.000000e+00 # a : 0.0
DECAY  1000022 0.000000e+00 # n1 : 0.0
#===========================================================
# QUANTUM NUMBERS OF NEW STATE(S) (NON SM PDG CODE)
#===========================================================

Block QNUMBERS 1000022  # n1
        1 0  # 3 times electric charge
        2 2  # number of spin states (2S+1)
        3 1  # colour rep (1: singlet, 3: triplet, 8: octet)
        4 0  # Particle/Antiparticle distinction (0=own anti)
Block QNUMBERS 1000023  # n2
        1 0  # 3 times electric charge
        2 2  # number of spin states (2S+1)
        3 1  # colour rep (1: singlet, 3: triplet, 8: octet)
        4 0  # Particle/Antiparticle distinction (0=own anti)
Block QNUMBERS 1000025  # n3
        1 0  # 3 times electric charge
        2 2  # number of spin states (2S+1)
        3 1  # colour rep (1: singlet, 3: triplet, 8: octet)
        4 0  # Particle/Antiparticle distinction (0=own anti)
Block QNUMBERS 1000035  # n4
        1 0  # 3 times electric charge
        2 2  # number of spin states (2S+1)
        3 1  # colour rep (1: singlet, 3: triplet, 8: octet)
        4 0  # Particle/Antiparticle distinction (0=own anti)
Block QNUMBERS 1000024  # x1+
        1 3  # 3 times electric charge
        2 2  # number of spin states (2S+1)
        3 1  # colour rep (1: singlet, 3: triplet, 8: octet)
        4 1  # Particle/Antiparticle distinction (0=own anti)
Block QNUMBERS 1000037  # x2+
        1 3  # 3 times electric charge
        2 2  # number of spin states (2S+1)
        3 1  # colour rep (1: singlet, 3: triplet, 8: octet)
        4 1  # Particle/Antiparticle distinction (0=own anti)
Block QNUMBERS 1000021  # go
        1 0  # 3 times electric charge
        2 2  # number of spin states (2S+1)
        3 8  # colour rep (1: singlet, 3: triplet, 8: octet)
        4 0  # Particle/Antiparticle distinction (0=own anti)
Block QNUMBERS 35  # h2
        1 0  # 3 times electric charge
        2 1  # number of spin states (2S+1)
        3 1  # colour rep (1: singlet, 3: triplet, 8: octet)
        4 0  # Particle/Antiparticle distinction (0=own anti)
Block QNUMBERS 36  # h3
        1 0  # 3 times electric charge
        2 1  # number of spin states (2S+1)
        3 1  # colour rep (1: singlet, 3: triplet, 8: octet)
        4 0  # Particle/Antiparticle distinction (0=own anti)
Block QNUMBERS 37  # h+
        1 3  # 3 times electric charge
        2 1  # number of spin states (2S+1)
        3 1  # colour rep (1: singlet, 3: triplet, 8: octet)
        4 1  # Particle/Antiparticle distinction (0=own anti)
Block QNUMBERS 1000012  # sve
        1 0  # 3 times electric charge
        2 1  # number of spin states (2S+1)
        3 1  # colour rep (1: singlet, 3: triplet, 8: octet)
        4 1  # Particle/Antiparticle distinction (0=own anti)
Block QNUMBERS 1000014  # svm
        1 0  # 3 times electric charge
        2 1  # number of spin states (2S+1)
        3 1  # colour rep (1: singlet, 3: triplet, 8: octet)
        4 1  # Particle/Antiparticle distinction (0=own anti)
Block QNUMBERS 1000016  # svt
        1 0  # 3 times electric charge
        2 1  # number of spin states (2S+1)
        3 1  # colour rep (1: singlet, 3: triplet, 8: octet)
        4 1  # Particle/Antiparticle distinction (0=own anti)
Block QNUMBERS 1000011  # el-
        1 -3  # 3 times electric charge
        2 1  # number of spin states (2S+1)
        3 1  # colour rep (1: singlet, 3: triplet, 8: octet)
        4 1  # Particle/Antiparticle distinction (0=own anti)
Block QNUMBERS 1000013  # mul-
        1 -3  # 3 times electric charge
        2 1  # number of spin states (2S+1)
        3 1  # colour rep (1: singlet, 3: triplet, 8: octet)
        4 1  # Particle/Antiparticle distinction (0=own anti)
Block QNUMBERS 1000015  # ta1-
        1 -3  # 3 times electric charge
        2 1  # number of spin states (2S+1)
        3 1  # colour rep (1: singlet, 3: triplet, 8: octet)
        4 1  # Particle/Antiparticle distinction (0=own anti)
Block QNUMBERS 2000011  # er-
        1 -3  # 3 times electric charge
        2 1  # number of spin states (2S+1)
        3 1  # colour rep (1: singlet, 3: triplet, 8: octet)
        4 1  # Particle/Antiparticle distinction (0=own anti)
Block QNUMBERS 2000013  # mur-
        1 -3  # 3 times electric charge
        2 1  # number of spin states (2S+1)
        3 1  # colour rep (1: singlet, 3: triplet, 8: octet)
        4 1  # Particle/Antiparticle distinction (0=own anti)
Block QNUMBERS 2000015  # ta2-
        1 -3  # 3 times electric charge
        2 1  # number of spin states (2S+1)
        3 1  # colour rep (1: singlet, 3: triplet, 8: octet)
        4 1  # Particle/Antiparticle distinction (0=own anti)
Block QNUMBERS 1000002  # ul
        1 2  # 3 times electric charge
        2 1  # number of spin states (2S+1)
        3 3  # colour rep (1: singlet, 3: triplet, 8: octet)
        4 1  # Particle/Antiparticle distinction (0=own anti)
Block QNUMBERS 1000004  # cl
        1 2  # 3 times electric charge
        2 1  # number of spin states (2S+1)
        3 3  # colour rep (1: singlet, 3: triplet, 8: octet)
        4 1  # Particle/Antiparticle distinction (0=own anti)
Block QNUMBERS 1000006  # t1
        1 2  # 3 times electric charge
        2 1  # number of spin states (2S+1)
        3 3  # colour rep (1: singlet, 3: triplet, 8: octet)
        4 1  # Particle/Antiparticle distinction (0=own anti)
Block QNUMBERS 2000002  # ur
        1 2  # 3 times electric charge
        2 1  # number of spin states (2S+1)
        3 3  # colour rep (1: singlet, 3: triplet, 8: octet)
        4 1  # Particle/Antiparticle distinction (0=own anti)
Block QNUMBERS 2000004  # cr
        1 2  # 3 times electric charge
        2 1  # number of spin states (2S+1)
        3 3  # colour rep (1: singlet, 3: triplet, 8: octet)
        4 1  # Particle/Antiparticle distinction (0=own anti)
Block QNUMBERS 2000006  # t2
        1 2  # 3 times electric charge
        2 1  # number of spin states (2S+1)
        3 3  # colour rep (1: singlet, 3: triplet, 8: octet)
        4 1  # Particle/Antiparticle distinction (0=own anti)
Block QNUMBERS 1000001  # dl
        1 -1  # 3 times electric charge
        2 1  # number of spin states (2S+1)
        3 3  # colour rep (1: singlet, 3: triplet, 8: octet)
        4 1  # Particle/Antiparticle distinction (0=own anti)
Block QNUMBERS 1000003  # sl
        1 -1  # 3 times electric charge
        2 1  # number of spin states (2S+1)
        3 3  # colour rep (1: singlet, 3: triplet, 8: octet)
        4 1  # Particle/Antiparticle distinction (0=own anti)
Block QNUMBERS 1000005  # b1
        1 -1  # 3 times electric charge
        2 1  # number of spin states (2S+1)
        3 3  # colour rep (1: singlet, 3: triplet, 8: octet)
        4 1  # Particle/Antiparticle distinction (0=own anti)
Block QNUMBERS 2000001  # dr
        1 -1  # 3 times electric charge
        2 1  # number of spin states (2S+1)
        3 3  # colour rep (1: singlet, 3: triplet, 8: octet)
        4 1  # Particle/Antiparticle distinction (0=own anti)
Block QNUMBERS 2000003  # sr
        1 -1  # 3 times electric charge
        2 1  # number of spin states (2S+1)
        3 3  # colour rep (1: singlet, 3: triplet, 8: octet)
        4 1  # Particle/Antiparticle distinction (0=own anti)
Block QNUMBERS 2000005  # b2
        1 -1  # 3 times electric charge
        2 1  # number of spin states (2S+1)
        3 3  # colour rep (1: singlet, 3: triplet, 8: octet)
        4 1  # Particle/Antiparticle distinction (0=own anti)
